{ "_id" : { "target" : 4, "word" : "" }, "count" : 971473 }
{ "_id" : { "target" : 4, "word" : "the" }, "count" : 246501 }
{ "_id" : { "target" : 4, "word" : "to" }, "count" : 246444 }
{ "_id" : { "target" : 4, "word" : "I" }, "count" : 196792 }
{ "_id" : { "target" : 4, "word" : "a" }, "count" : 190388 }
{ "_id" : { "target" : 4, "word" : "you" }, "count" : 138383 }
{ "_id" : { "target" : 4, "word" : "and" }, "count" : 135023 }
{ "_id" : { "target" : 4, "word" : "for" }, "count" : 113503 }
{ "_id" : { "target" : 4, "word" : "my" }, "count" : 113108 }
{ "_id" : { "target" : 4, "word" : "is" }, "count" : 99567 }
{ "_id" : { "target" : 4, "word" : "in" }, "count" : 93873 }
{ "_id" : { "target" : 4, "word" : "i" }, "count" : 89873 }
{ "_id" : { "target" : 4, "word" : "of" }, "count" : 88640 }
{ "_id" : { "target" : 4, "word" : "it" }, "count" : 80723 }
{ "_id" : { "target" : 4, "word" : "on" }, "count" : 76800 }
{ "_id" : { "target" : 4, "word" : "with" }, "count" : 62629 }
{ "_id" : { "target" : 4, "word" : "that" }, "count" : 56776 }
{ "_id" : { "target" : 4, "word" : "have" }, "count" : 54373 }
{ "_id" : { "target" : 4, "word" : "me" }, "count" : 53162 }
{ "_id" : { "target" : 4, "word" : "so" }, "count" : 52417 }
Type "it" for more
> it
{ "_id" : { "target" : 4, "word" : "be" }, "count" : 51431 }
{ "_id" : { "target" : 4, "word" : "just" }, "count" : 46314 }
{ "_id" : { "target" : 4, "word" : "at" }, "count" : 44843 }
{ "_id" : { "target" : 4, "word" : "I'm" }, "count" : 43364 }
{ "_id" : { "target" : 4, "word" : "was" }, "count" : 43009 }
{ "_id" : { "target" : 4, "word" : "-" }, "count" : 42159 }
{ "_id" : { "target" : 4, "word" : "your" }, "count" : 41253 }
{ "_id" : { "target" : 4, "word" : "are" }, "count" : 40703 }
{ "_id" : { "target" : 4, "word" : "good" }, "count" : 39646 }
{ "_id" : { "target" : 4, "word" : "but" }, "count" : 38005 }
{ "_id" : { "target" : 4, "word" : "love" }, "count" : 36784 }
{ "_id" : { "target" : 4, "word" : "like" }, "count" : 34667 }
{ "_id" : { "target" : 4, "word" : "this" }, "count" : 34197 }
{ "_id" : { "target" : 4, "word" : "all" }, "count" : 32971 }
{ "_id" : { "target" : 4, "word" : "get" }, "count" : 32626 }
{ "_id" : { "target" : 4, "word" : "up" }, "count" : 30836 }
{ "_id" : { "target" : 4, "word" : "out" }, "count" : 30792 }
{ "_id" : { "target" : 4, "word" : "day" }, "count" : 28987 }
{ "_id" : { "target" : 4, "word" : "from" }, "count" : 26949 }
{ "_id" : { "target" : 4, "word" : "not" }, "count" : 26723 }
Type "it" for more
> it
{ "_id" : { "target" : 4, "word" : "will" }, "count" : 25485 }
{ "_id" : { "target" : 4, "word" : "do" }, "count" : 25193 }
{ "_id" : { "target" : 4, "word" : "some" }, "count" : 25062 }
{ "_id" : { "target" : 4, "word" : "u" }, "count" : 24617 }
{ "_id" : { "target" : 4, "word" : "can" }, "count" : 24441 }
{ "_id" : { "target" : 4, "word" : "got" }, "count" : 24345 }
{ "_id" : { "target" : 4, "word" : "going" }, "count" : 24269 }
{ "_id" : { "target" : 4, "word" : "go" }, "count" : 22701 }
{ "_id" : { "target" : 4, "word" : "now" }, "count" : 22598 }
{ "_id" : { "target" : 4, "word" : "see" }, "count" : 22339 }
{ "_id" : { "target" : 4, "word" : "new" }, "count" : 22274 }
{ "_id" : { "target" : 4, "word" : "about" }, "count" : 22145 }
{ "_id" : { "target" : 4, "word" : "&amp;" }, "count" : 21812 }
{ "_id" : { "target" : 4, "word" : "we" }, "count" : 20751 }
{ "_id" : { "target" : 4, "word" : "know" }, "count" : 20391 }
{ "_id" : { "target" : 4, "word" : "it's" }, "count" : 20312 }
{ "_id" : { "target" : 4, "word" : "time" }, "count" : 20249 }
{ "_id" : { "target" : 4, "word" : "what" }, "count" : 19926 }
{ "_id" : { "target" : 4, "word" : "one" }, "count" : 19721 }
{ "_id" : { "target" : 4, "word" : "if" }, "count" : 19244 }
Type "it" for more
> it
{ "_id" : { "target" : 4, "word" : "as" }, "count" : 19193 }
{ "_id" : { "target" : 4, "word" : "back" }, "count" : 18125 }
{ "_id" : { "target" : 4, "word" : "am" }, "count" : 18062 }
{ "_id" : { "target" : 4, "word" : "great" }, "count" : 17715 }
{ "_id" : { "target" : 4, "word" : "think" }, "count" : 17377 }
{ "_id" : { "target" : 4, "word" : "had" }, "count" : 17016 }
{ "_id" : { "target" : 4, "word" : "an" }, "count" : 16988 }
{ "_id" : { "target" : 4, "word" : "more" }, "count" : 16292 }
{ "_id" : { "target" : 4, "word" : "how" }, "count" : 15893 }
{ "_id" : { "target" : 4, "word" : "too" }, "count" : 15747 }
{ "_id" : { "target" : 4, "word" : "lol" }, "count" : 15616 }
{ "_id" : { "target" : 4, "word" : "really" }, "count" : 15398 }
{ "_id" : { "target" : 4, "word" : "when" }, "count" : 15090 }
{ "_id" : { "target" : 4, "word" : "then" }, "count" : 14903 }
{ "_id" : { "target" : 4, "word" : "its" }, "count" : 14892 }
{ "_id" : { "target" : 4, "word" : "Just" }, "count" : 14679 }
{ "_id" : { "target" : 4, "word" : "2" }, "count" : 14581 }
{ "_id" : { "target" : 4, "word" : "im" }, "count" : 14478 }
{ "_id" : { "target" : 4, "word" : "or" }, "count" : 14460 }
{ "_id" : { "target" : 4, "word" : "thanks" }, "count" : 14308 }
Type "it" for more
> it
{ "_id" : { "target" : 4, "word" : "You" }, "count" : 14162 }
{ "_id" : { "target" : 4, "word" : "The" }, "count" : 14118 }
{ "_id" : { "target" : 4, "word" : "no" }, "count" : 13617 }
{ "_id" : { "target" : 4, "word" : "don't" }, "count" : 13569 }
{ "_id" : { "target" : 4, "word" : "today" }, "count" : 13462 }
{ "_id" : { "target" : 4, "word" : "night" }, "count" : 13198 }
{ "_id" : { "target" : 4, "word" : "Good" }, "count" : 13131 }
{ "_id" : { "target" : 4, "word" : "work" }, "count" : 13058 }
{ "_id" : { "target" : 4, "word" : "much" }, "count" : 12886 }
{ "_id" : { "target" : 4, "word" : "off" }, "count" : 12805 }
{ "_id" : { "target" : 4, "word" : "hope" }, "count" : 12643 }
{ "_id" : { "target" : 4, "word" : "would" }, "count" : 12122 }
{ "_id" : { "target" : 4, "word" : "need" }, "count" : 12101 }
{ "_id" : { "target" : 4, "word" : "they" }, "count" : 12092 }
{ "_id" : { "target" : 4, "word" : "there" }, "count" : 12007 }
{ "_id" : { "target" : 4, "word" : "been" }, "count" : 11947 }
{ "_id" : { "target" : 4, "word" : "nice" }, "count" : 11772 }
{ "_id" : { "target" : 4, "word" : "should" }, "count" : 11697 }
{ "_id" : { "target" : 4, "word" : "by" }, "count" : 11686 }
{ "_id" : { "target" : 4, "word" : "still" }, "count" : 11648 }
Type "it" for more
> it
{ "_id" : { "target" : 4, "word" : "fun" }, "count" : 11605 }
{ "_id" : { "target" : 4, "word" : "well" }, "count" : 11583 }
{ "_id" : { "target" : 4, "word" : "Thanks" }, "count" : 11552 }
{ "_id" : { "target" : 4, "word" : "last" }, "count" : 11542 }
{ "_id" : { "target" : 4, "word" : "make" }, "count" : 11542 }
{ "_id" : { "target" : 4, "word" : "very" }, "count" : 11528 }
{ "_id" : { "target" : 4, "word" : "her" }, "count" : 11437 }
{ "_id" : { "target" : 4, "word" : "i'm" }, "count" : 11428 }
{ "_id" : { "target" : 4, "word" : "wait" }, "count" : 11371 }
{ "_id" : { "target" : 4, "word" : "happy" }, "count" : 11255 }
{ "_id" : { "target" : 4, "word" : "has" }, "count" : 11238 }
{ "_id" : { "target" : 4, "word" : "want" }, "count" : 11235 }
{ "_id" : { "target" : 4, "word" : "I'll" }, "count" : 11135 }
{ "_id" : { "target" : 4, "word" : "here" }, "count" : 11087 }
{ "_id" : { "target" : 4, "word" : "haha" }, "count" : 10897 }
{ "_id" : { "target" : 4, "word" : "home" }, "count" : 10527 }
{ "_id" : { "target" : 4, "word" : "It's" }, "count" : 10278 }
{ "_id" : { "target" : 4, "word" : "watching" }, "count" : 10250 }
{ "_id" : { "target" : 4, "word" : "morning" }, "count" : 10175 }
{ "_id" : { "target" : 4, "word" : "can't" }, "count" : 10066 }